{
  "items": [
    {
      "raceId": 1700100000,
      "createdAt": "1970-01-01T00:33:20Z",
      "updatedAt": "1970-01-01T00:33:20Z",
      "notes": "Second race",
      "tags": ["sentiment:neutral"],
      "race": {
        "id": 1700100000,
        "subsessionId": 100002,
        "trackId": 2,
        "carId": 11,
        "seriesId": 43,
        "seriesName": "Ferrari GT3 Challenge",
        "startTime": "2023-11-16T02:00:00Z",
        "startPosition": 0,
        "startPositionInClass": 0,
        "finishPosition": 5,
        "finishPositionInClass": 0,
        "incidents": 0,
        "oldCpi": 0,
        "newCpi": 0,
        "oldIrating": 0,
        "newIrating": 0,
        "oldLicenseLevel": 0,
        "newLicenseLevel": 0,
        "oldSubLevel": 0,
        "newSubLevel": 0,
        "reasonOut": ""
      }
    }
  ],
  "pagination": {
    "page": 1,
    "resultsPerPage": 1,
    "totalResults": 2,
    "totalPages": 2
  },
  "correlationId": "test-correlation-id"
}